{
    "port": 8000,
    "production": {
        "postgres": { 
            "db" : "test1", 
            "user" : "postgres", 
            "password" : "postgres", 
            "port" : 5432,
            "host" : "localhost"
        },
        "ENCRYPTION_KEY": "{z$7U?!#BPX/M~f-:d8eAd3wjRC%UdB}"
    },
    "qa": {},
    "development": {
        "postgres": { 
            "db" : "test1", 
            "user" : "postgres", 
            "password" : "postgres", 
            "port" : 5432,
            "host":"localhost"
        },
        "ENCRYPTION_KEY": ".}F+y,*V4>crkD>`$L@]Xk=XW-<S@'as"
    }
}